<?xml version="1.0" encoding="UTF-8" standalone="no"?>
<svg
   xmlns:dc="http://purl.org/dc/elements/1.1/"
   xmlns:cc="http://creativecommons.org/ns#"
   xmlns:rdf="http://www.w3.org/1999/02/22-rdf-syntax-ns#"
   xmlns:svg="http://www.w3.org/2000/svg"
   xmlns="http://www.w3.org/2000/svg"
   xmlns:xlink="http://www.w3.org/1999/xlink"
   xmlns:sodipodi="http://sodipodi.sourceforge.net/DTD/sodipodi-0.dtd"
   xmlns:inkscape="http://www.inkscape.org/namespaces/inkscape"
   viewBox="-5000 -5000 12000 12000"
   id="svg4204"
   version="1.1"
   inkscape:version="0.91 r13725"
   sodipodi:docname="piratas-site_noroeste_rosa_punho.svg"
   width="12000"
   height="12000"
   inkscape:export-filename="/home/user/Documentos/piratas-site.png"
   inkscape:export-xdpi="4"
   inkscape:export-ydpi="4">
  <title
     id="title8081">partidopirata.org (noroeste) (rosa) (punho)</title>
  <metadata
     id="metadata4216">
    <rdf:RDF>
      <cc:Work
         rdf:about="">
        <dc:format>image/svg+xml</dc:format>
        <dc:type
           rdf:resource="http://purl.org/dc/dcmitype/StillImage" />
        <dc:title>partidopirata.org (noroeste) (rosa) (punho)</dc:title>
        <cc:license
           rdf:resource="http://creativecommons.org/publicdomain/zero/1.0/" />
        <dc:date>18 de Novembro de 2015</dc:date>
        <dc:creator>
          <cc:Agent>
            <dc:title>Desobediente Civil</dc:title>
          </cc:Agent>
        </dc:creator>
        <dc:rights>
          <cc:Agent>
            <dc:title>Domínio Público</dc:title>
          </cc:Agent>
        </dc:rights>
        <dc:publisher>
          <cc:Agent>
            <dc:title>PIRATAS - Partido Pirata no Brasil</dc:title>
          </cc:Agent>
        </dc:publisher>
        <dc:source>Piratpartiet</dc:source>
        <dc:relation>Piratpartiet</dc:relation>
        <dc:subject>
          <rdf:Bag>
            <rdf:li>piratas</rdf:li>
            <rdf:li>partido pirata</rdf:li>
            <rdf:li>piratpartiet</rdf:li>
            <rdf:li>partidopirata.org</rdf:li>
            <rdf:li>rosa</rdf:li>
            <rdf:li>feminismo</rdf:li>
            <rdf:li>feminism</rdf:li>
            <rdf:li>feminista</rdf:li>
            <rdf:li>punho</rdf:li>
          </rdf:Bag>
        </dc:subject>
        <dc:coverage>Brasil</dc:coverage>
        <dc:description>Símbolo dos partidos piratas com o punho do símbolo de poder feminino e com o site partidopirata.org (usando a cor #cc3366ff). Texto projetado para noroeste.</dc:description>
        <dc:contributor>
          <cc:Agent>
            <dc:title>Utiliza o símbolo do Piratpartiet disponível em https://commons.wikimedia.org/wiki/File%3APiratpartiet.svg
Utiliza o punho e a cor do símbolo de poder feminino disponível em https://commons.wikimedia.org/wiki/File:Woman-power_emblem.svg</dc:title>
          </cc:Agent>
        </dc:contributor>
      </cc:Work>
      <cc:License
         rdf:about="http://creativecommons.org/publicdomain/zero/1.0/">
        <cc:permits
           rdf:resource="http://creativecommons.org/ns#Reproduction" />
        <cc:permits
           rdf:resource="http://creativecommons.org/ns#Distribution" />
        <cc:permits
           rdf:resource="http://creativecommons.org/ns#DerivativeWorks" />
      </cc:License>
    </rdf:RDF>
  </metadata>
  <defs
     id="defs4214" />
  <sodipodi:namedview
     pagecolor="#ffffff"
     bordercolor="#666666"
     borderopacity="1"
     objecttolerance="10"
     gridtolerance="10"
     guidetolerance="10"
     inkscape:pageopacity="0"
     inkscape:pageshadow="2"
     inkscape:window-width="1280"
     inkscape:window-height="976"
     id="namedview4212"
     showgrid="false"
     fit-margin-top="0"
     fit-margin-left="0"
     fit-margin-right="0"
     fit-margin-bottom="0"
     inkscape:zoom="0.04"
     inkscape:cx="5613.1939"
     inkscape:cy="6673.2082"
     inkscape:window-x="0"
     inkscape:window-y="21"
     inkscape:window-maximized="0"
     inkscape:current-layer="layer1" />
  <g
     inkscape:groupmode="layer"
     id="layer1"
     inkscape:label="Fundo"
     transform="translate(1500,1500)"
     style="display:inline">
    <rect
       style="fill:#ffffff;fill-opacity:1;stroke:none"
       id="rect4227"
       width="12000"
       height="12000"
       x="-6500"
       y="-6500" />
  </g>
  <g
     inkscape:groupmode="layer"
     id="layer2"
     inkscape:label="Logotipo"
     style="display:inline"
     transform="translate(1500,1500)">
    <circle
       r="5000"
       id="circle4206"
       cx="0"
       cy="0"
       style="fill:#cc3366;fill-opacity:1" />
    <circle
       style="fill:#ffffff;fill-opacity:1"
       r="4500"
       id="circle4208"
       cx="0"
       cy="0" />
    <path
       d="m -1944,1560 0,-4207 c -187,-12 -343,0 -441,29 -28,-61 144,-155 441,-245 l 0,-810 438,0 0,700 c 1578,-327 4724,-344 4741,2384 11,1926 -3401,1632 -4390,2257 -1076,678 -593,2113 -593,2113 0,0 -651,-1344 -196,-2221 z m 438,-469 C -1044,777 -251,398 -98,-327 210,-1785 -717,-2390 -1506,-2580 Z"
       id="path4210"
       inkscape:connector-curvature="0"
       style="fill:#cc3366;fill-opacity:1" />
    <path
       inkscape:connector-curvature="0"
       style="display:inline;fill:#ffffff;stroke:none"
       d="m 1443.3962,0 0,-424.5283 C 1773.5849,-570.7547 2000,-816.0378 2000,-1051.8868 c 0,-113.2075 -84.9056,-216.9812 -226.4151,-216.9812 -117.9244,0 -188.6792,33.019 -306.6037,33.019 -235.8491,0 -198.1133,-113.2076 -250,-113.2076 -51.8869,0 -103.7736,61.3207 -103.7736,155.6604 0,141.5094 117.9245,212.264 235.8492,212.264 70.7546,0 94.3394,-28.3018 136.7923,-28.3018 28.302,0 42.4529,4.7169 42.4529,18.8679 0,23.5849 -51.8867,66.0378 -117.9247,66.0378 -235.8488,0 -264.1507,-160.3773 -556.6037,-160.3773 -179.2453,0 -292.4528,113.2075 -292.4528,297.1697 0,231.1321 150.9434,330.1887 410.3774,363.2076 l 0,424.5283 z m 443.3965,-1636.7925 c 0,-94.3397 -113.2078,-245.2831 -183.9624,-245.2831 -70.7547,0 -117.9246,396.2264 -117.9246,443.3962 0,70.7549 70.7548,155.6604 141.5096,155.6604 51.8868,0 160.3774,-259.4338 160.3774,-353.7735 z m -306.6039,-207.5472 c 0,-117.9245 -183.9624,-174.5283 -250.0001,-174.5283 -89.6227,0 -117.9245,235.8491 -117.9245,471.6983 0,94.3395 42.4528,216.9811 160.3774,216.9811 117.9245,0 207.5472,-264.151 207.5472,-514.1511 z m -396.2264,-23.585 c 0,-66.0377 -28.302,-127.3584 -80.1887,-127.3584 -94.3397,0 -273.585,117.9247 -273.585,235.849 0,235.8492 47.1698,471.6982 165.0944,471.6982 127.3586,0 188.6793,-448.1133 188.6793,-580.1888 z m -372.6416,580.1888 c 0,-212.264 -28.3019,-462.2641 -99.0566,-462.2641 -94.3396,0 -212.2642,75.4717 -212.2642,179.2452 0,198.1134 94.3396,448.1133 235.8491,448.1133 51.8868,0 75.4717,-37.7357 75.4717,-165.0944 z"
       id="path4291"
       inkscape:export-xdpi="90"
       inkscape:export-ydpi="90" />
  </g>
  <g
     inkscape:groupmode="layer"
     id="layer4"
     inkscape:label="Contorno"
     style="display:none"
     transform="translate(500,500)">
    <path
       d="M -4500,1000 A 5500,5500 0 0 1 1000,-4500 5500,5500 0 0 1 6500,1000 5500,5500 0 0 1 1000,6500 5500,5500 0 0 1 -4500,1000 Z"
       id="circle4271"
       inkscape:connector-curvature="0" />
  </g>
  <g
     inkscape:groupmode="layer"
     id="layer3"
     inkscape:label="Texto"
     transform="translate(500,500)"
     style="display:inline">
    <text
       xml:space="preserve"
       style="font-style:normal;font-variant:normal;font-weight:bold;font-stretch:normal;font-size:937.5px;line-height:125%;font-family:'Liberation Sans';-inkscape-font-specification:'Liberation Sans Bold';letter-spacing:0px;word-spacing:0px;fill:#cc3366;fill-opacity:1;stroke:none;stroke-width:1px;stroke-linecap:butt;stroke-linejoin:miter;stroke-opacity:1;"
       id="text4251"
       sodipodi:linespacing="125%"><textPath
         xlink:href="#circle4271"
         id="textPath4296"><tspan
   style="font-style:normal;font-variant:normal;font-weight:bold;font-stretch:normal;font-size:937.5px;font-family:'Liberation Sans';-inkscape-font-specification:'Liberation Sans Bold';fill:#cc3366;fill-opacity:1;"
   id="tspan4253">partidopirata.org</tspan></textPath></text>
  </g>
</svg>
