<?xml version="1.0" encoding="UTF-8" standalone="no"?>
<svg
   xmlns:dc="http://purl.org/dc/elements/1.1/"
   xmlns:cc="http://creativecommons.org/ns#"
   xmlns:rdf="http://www.w3.org/1999/02/22-rdf-syntax-ns#"
   xmlns:svg="http://www.w3.org/2000/svg"
   xmlns="http://www.w3.org/2000/svg"
   xmlns:sodipodi="http://sodipodi.sourceforge.net/DTD/sodipodi-0.dtd"
   xmlns:inkscape="http://www.inkscape.org/namespaces/inkscape"
   viewBox="-5000 -5000 10000 17500"
   id="svg3385"
   version="1.1"
   inkscape:version="0.91 r13725"
   sodipodi:docname="piratas_feministas_punho_rosa-preto_invertido.svg"
   width="10000"
   height="17500"
   inkscape:export-filename="/home/user/Documentos/piratas_feministas_rosa.png"
   inkscape:export-xdpi="90"
   inkscape:export-ydpi="90">
  <title
     id="title4324">Piratas Feministas (punho) (rosa-preto) (invertido)</title>
  <metadata
     id="metadata3397">
    <rdf:RDF>
      <cc:Work
         rdf:about="">
        <dc:format>image/svg+xml</dc:format>
        <dc:type
           rdf:resource="http://purl.org/dc/dcmitype/StillImage" />
        <dc:title>Piratas Feministas (punho) (rosa-preto) (invertido)</dc:title>
        <cc:license
           rdf:resource="http://creativecommons.org/publicdomain/zero/1.0/" />
        <dc:date>18 de Novembro de 2015</dc:date>
        <dc:creator>
          <cc:Agent>
            <dc:title>Desobediente Civil</dc:title>
          </cc:Agent>
        </dc:creator>
        <dc:rights>
          <cc:Agent>
            <dc:title>Domínio Público</dc:title>
          </cc:Agent>
        </dc:rights>
        <dc:publisher>
          <cc:Agent>
            <dc:title>PIRATAS - Partido Pirata no Brasil</dc:title>
          </cc:Agent>
        </dc:publisher>
        <dc:source>Piratpartiet</dc:source>
        <dc:relation>Piratpartiet</dc:relation>
        <dc:language />
        <dc:subject>
          <rdf:Bag>
            <rdf:li>piratas</rdf:li>
            <rdf:li>partido pirata</rdf:li>
            <rdf:li>feminismo</rdf:li>
            <rdf:li>feminism</rdf:li>
            <rdf:li>feminista</rdf:li>
            <rdf:li>piratpartiet</rdf:li>
          </rdf:Bag>
        </dc:subject>
        <dc:coverage>Global</dc:coverage>
        <dc:description>Símbolo dos partidos piratas com uma gameta feminina e o punho do símbolo de poder feminino (usando a cor #cc3366ff com fundo preto). As cores foram invertidas.</dc:description>
        <dc:contributor>
          <cc:Agent>
            <dc:title>Utiliza o símbolo do Piratpartiet disponível em https://commons.wikimedia.org/wiki/File%3APiratpartiet.svg
Utiliza o punho e a cor do símbolo de poder feminino disponível em https://commons.wikimedia.org/wiki/File:Woman-power_emblem.svg</dc:title>
          </cc:Agent>
        </dc:contributor>
      </cc:Work>
      <cc:License
         rdf:about="http://creativecommons.org/publicdomain/zero/1.0/">
        <cc:permits
           rdf:resource="http://creativecommons.org/ns#Reproduction" />
        <cc:permits
           rdf:resource="http://creativecommons.org/ns#Distribution" />
        <cc:permits
           rdf:resource="http://creativecommons.org/ns#DerivativeWorks" />
      </cc:License>
    </rdf:RDF>
  </metadata>
  <defs
     id="defs3395" />
  <sodipodi:namedview
     pagecolor="#ffffff"
     bordercolor="#666666"
     borderopacity="1"
     objecttolerance="10"
     gridtolerance="10"
     guidetolerance="10"
     inkscape:pageopacity="0"
     inkscape:pageshadow="2"
     inkscape:window-width="1272"
     inkscape:window-height="968"
     id="namedview3393"
     showgrid="false"
     inkscape:zoom="0.020000001"
     inkscape:cx="-298.38082"
     inkscape:cy="9750.4978"
     inkscape:window-x="4"
     inkscape:window-y="25"
     inkscape:window-maximized="0"
     inkscape:current-layer="layer1"
     fit-margin-top="0"
     fit-margin-left="0"
     fit-margin-right="0"
     fit-margin-bottom="0" />
  <g
     inkscape:groupmode="layer"
     id="layer2"
     inkscape:label="Fundo"
     style="display:inline">
    <rect
       style="fill:#cc3366;fill-opacity:1;stroke:none"
       id="rect6399"
       width="10000"
       height="17500"
       x="-5000"
       y="-5000" />
  </g>
  <g
     inkscape:groupmode="layer"
     id="layer1"
     inkscape:label="Símbolo"
     style="display:inline">
    <circle
       r="5000"
       id="circle3387"
       cx="0"
       cy="-0.59960938"
       style="display:inline;fill:#000000;fill-opacity:1" />
    <circle
       r="4500"
       id="circle3389"
       cx="0"
       cy="-0.59960938"
       style="display:inline;fill:#cc3366;fill-opacity:1" />
    <path
       d="m -1944,1559.4004 0,-4207 c -187,-12 -343,0 -441,29 -28,-61 144,-155 441,-245 l 0,-810 438,0 0,700 c 1578,-327 4724,-344 4741,2383.99999 11,1926.00001 -3401,1632.00001 -4390,2257.00001 -1076,678 -593,2113 -593,2113 0,0 -651,-1344 -196,-2221 z m 438,-469 C -1044,776.40039 -251,397.40039 -98,-327.59961 210,-1785.5996 -717,-2390.5996 -1506,-2580.5996 Z"
       id="path3391"
       inkscape:connector-curvature="0"
       style="display:inline;fill:#000000;fill-opacity:1" />
    <rect
       style="display:inline;fill:#000000;fill-opacity:1;fill-rule:evenodd;stroke:none;stroke-width:1px;stroke-linecap:butt;stroke-linejoin:miter;stroke-opacity:1"
       id="rect3461"
       width="500"
       height="7500"
       x="-250"
       y="5000" />
    <rect
       style="display:inline;fill:#000000;fill-opacity:1;fill-rule:evenodd;stroke:none;stroke-width:1px;stroke-linecap:butt;stroke-linejoin:miter;stroke-opacity:1"
       id="rect3461-3"
       width="500"
       height="7500"
       x="8000"
       y="-3750"
       transform="matrix(0,1,-1,0,0,0)" />
    <rect
       style="display:inline;fill:#000000;fill-opacity:1;stroke:none"
       id="rect4282"
       width="500"
       height="1000"
       x="-250"
       y="4499.4004" />
    <path
       style="display:inline;fill:#000000;fill-opacity:1;stroke:none"
       d="m 3071.115,8260.3652 c -126.7894,-417.5433 -162.0822,-661.5503 -149.1586,-1031.2501 9.5198,-272.3287 22.1121,-353.8517 77.6988,-503.0247 l 66.3377,-178.0245 0,-2105.7908 0,-2105.7908 -212.5036,8.8154 c -116.877,4.8485 -212.502,1.3815 -212.5,-7.7045 0,-20.0929 175.6374,-106.5835 312.5036,-153.8927 l 100,-34.566 6.8693,-403.7607 6.8693,-403.7607 211.8807,0 211.8807,0 0,352.6747 c 0,306.9621 4.9796,350.7639 38.4178,337.9324 21.1298,-8.1082 198.3173,-39.4983 393.75,-69.7556 486.8624,-75.3772 1514.1925,-82.1217 1926.7005,-12.6489 562.6787,94.7639 1061.6428,276.0686 1409.0733,512.004 622.3757,422.6473 957.7245,1093.6233 956.7617,1914.3182 -0.6425,547.3062 -195.3165,889.9562 -682.4052,1201.113 -392.7123,250.8682 -855.0448,392.1452 -2092.2981,639.3525 -1345.4512,268.8257 -1536.7251,336.6945 -1865.0018,661.7497 -327.053,323.8435 -450.703,696.0255 -429.2672,1292.0798 6.8472,190.399 10.144,346.1803 7.3262,346.1803 -2.8178,0 -40.1386,-115.3125 -82.9351,-256.25 z m 841.7036,-2427.9858 c 532.5321,-353.3665 802.7874,-627.1105 937.5568,-949.659 111.8921,-267.7955 149.0331,-842.5815 75.8392,-1173.6702 -117.5394,-531.683 -522.2407,-973.7195 -1091.8409,-1192.5673 -99.4844,-38.2232 -217.4433,-77.2241 -262.1308,-86.6687 l -81.25,-17.1719 0,1839.4863 c 0,1011.7178 7.0091,1839.4865 15.5757,1839.4865 8.5666,0 191.3791,-116.656 406.25,-259.2357 z"
       id="path4839"
       inkscape:connector-curvature="0"
       transform="translate(-5000,-5000)" />
    <path
       inkscape:connector-curvature="0"
       style="display:inline;fill:#cc3366;fill-opacity:1;stroke:none"
       d="m 1443.3962,0 0,-424.52831 C 1773.5849,-570.75472 2000,-816.03778 2000,-1051.8868 c 0,-113.2075 -84.9056,-216.9812 -226.4151,-216.9812 -117.9244,0 -188.6792,33.019 -306.6037,33.019 -235.8491,0 -198.1133,-113.2076 -250,-113.2076 -51.8869,0 -103.7736,61.3207 -103.7736,155.6604 0,141.5094 117.9245,212.264 235.8492,212.264 70.7546,0 94.3394,-28.3018 136.7923,-28.3018 28.302,0 42.4529,4.7169 42.4529,18.8679 0,23.58493 -51.8867,66.03777 -117.9247,66.03777 -235.8488,0 -264.1507,-160.37727 -556.60368,-160.37727 -179.2453,0 -292.45287,113.20746 -292.45287,297.16972 0,231.13206 150.94342,330.18871 410.37742,363.20757 l 0,424.52831 z m 443.3965,-1636.7925 c 0,-94.3397 -113.2078,-245.2831 -183.9624,-245.2831 -70.7547,0 -117.9246,396.2264 -117.9246,443.3962 0,70.7549 70.7548,155.6604 141.5096,155.6604 51.8868,0 160.3774,-259.4338 160.3774,-353.7735 z m -306.6039,-207.5472 c 0,-117.9245 -183.9624,-174.5283 -250.0001,-174.5283 -89.6227,0 -117.9245,235.8491 -117.9245,471.6983 0,94.3395 42.4528,216.9811 160.3774,216.9811 117.9245,0 207.5472,-264.151 207.5472,-514.1511 z m -396.2264,-23.585 c 0,-66.0377 -28.302,-127.3584 -80.1887,-127.3584 -94.3397,0 -273.58498,117.9247 -273.58498,235.849 0,235.8492 47.16982,471.6982 165.09435,471.6982 127.35863,0 188.67933,-448.1133 188.67933,-580.1888 z m -372.64163,580.1888 c 0,-212.264 -28.30188,-462.2641 -99.0566,-462.2641 C 617.92455,-1750 500,-1674.5283 500,-1570.7548 c 0,198.1134 94.33962,448.1133 235.84907,448.1133 51.88681,0 75.4717,-37.7357 75.4717,-165.0944 z"
       id="path4291" />
  </g>
</svg>
