<?xml version="1.0" encoding="UTF-8" standalone="no"?>
<svg
   xmlns:dc="http://purl.org/dc/elements/1.1/"
   xmlns:cc="http://creativecommons.org/ns#"
   xmlns:rdf="http://www.w3.org/1999/02/22-rdf-syntax-ns#"
   xmlns:svg="http://www.w3.org/2000/svg"
   xmlns="http://www.w3.org/2000/svg"
   xmlns:xlink="http://www.w3.org/1999/xlink"
   xmlns:sodipodi="http://sodipodi.sourceforge.net/DTD/sodipodi-0.dtd"
   xmlns:inkscape="http://www.inkscape.org/namespaces/inkscape"
   viewBox="-5000 -5000 12000 12000"
   id="svg4204"
   version="1.1"
   inkscape:version="0.91 r13725"
   sodipodi:docname="piratas-site_nordeste_rosa-preto_invertido.svg"
   width="12000"
   height="12000"
   inkscape:export-filename="/home/user/Documentos/piratas-site.png"
   inkscape:export-xdpi="4"
   inkscape:export-ydpi="4">
  <title
     id="title8079">partidopirata.org (nordeste) (rosa-preto) (invertido)</title>
  <metadata
     id="metadata4216">
    <rdf:RDF>
      <cc:Work
         rdf:about="">
        <dc:format>image/svg+xml</dc:format>
        <dc:type
           rdf:resource="http://purl.org/dc/dcmitype/StillImage" />
        <dc:title>partidopirata.org (nordeste) (rosa-preto) (invertido)</dc:title>
        <cc:license
           rdf:resource="http://creativecommons.org/publicdomain/zero/1.0/" />
        <dc:date>18 de Novembro de 2015</dc:date>
        <dc:creator>
          <cc:Agent>
            <dc:title>Desobediente Civil</dc:title>
          </cc:Agent>
        </dc:creator>
        <dc:rights>
          <cc:Agent>
            <dc:title>Domínio Público</dc:title>
          </cc:Agent>
        </dc:rights>
        <dc:publisher>
          <cc:Agent>
            <dc:title>PIRATAS - Partido Pirata no Brasil</dc:title>
          </cc:Agent>
        </dc:publisher>
        <dc:source>Piratpartiet</dc:source>
        <dc:relation>Piratpartiet</dc:relation>
        <dc:subject>
          <rdf:Bag>
            <rdf:li>piratas</rdf:li>
            <rdf:li>partido pirata</rdf:li>
            <rdf:li>piratpartiet</rdf:li>
            <rdf:li>partidopirata.org</rdf:li>
          </rdf:Bag>
        </dc:subject>
        <dc:coverage>Brasil</dc:coverage>
        <dc:description>Símbolo dos partidos piratas com o site partidopirata.org (usando a cor #cc3366ff em fundo preto). Texto projetado para nordeste. As cores foram invertidas.</dc:description>
        <dc:contributor>
          <cc:Agent>
            <dc:title>Utiliza o símbolo do Piratpartiet disponível em https://commons.wikimedia.org/wiki/File%3APiratpartiet.svg
Utiliza a cor do símbolo de poder feminino disponível em https://commons.wikimedia.org/wiki/File:Woman-power_emblem.svg</dc:title>
          </cc:Agent>
        </dc:contributor>
      </cc:Work>
      <cc:License
         rdf:about="http://creativecommons.org/publicdomain/zero/1.0/">
        <cc:permits
           rdf:resource="http://creativecommons.org/ns#Reproduction" />
        <cc:permits
           rdf:resource="http://creativecommons.org/ns#Distribution" />
        <cc:permits
           rdf:resource="http://creativecommons.org/ns#DerivativeWorks" />
      </cc:License>
    </rdf:RDF>
  </metadata>
  <defs
     id="defs4214" />
  <sodipodi:namedview
     pagecolor="#ffffff"
     bordercolor="#666666"
     borderopacity="1"
     objecttolerance="10"
     gridtolerance="10"
     guidetolerance="10"
     inkscape:pageopacity="0"
     inkscape:pageshadow="2"
     inkscape:window-width="1272"
     inkscape:window-height="968"
     id="namedview4212"
     showgrid="false"
     fit-margin-top="0"
     fit-margin-left="0"
     fit-margin-right="0"
     fit-margin-bottom="0"
     inkscape:zoom="0.04"
     inkscape:cx="5657.8912"
     inkscape:cy="5659.4766"
     inkscape:window-x="4"
     inkscape:window-y="25"
     inkscape:window-maximized="0"
     inkscape:current-layer="layer2" />
  <g
     inkscape:groupmode="layer"
     id="layer1"
     inkscape:label="Fundo"
     transform="translate(1500,1500)"
     style="display:inline">
    <rect
       style="fill:#cc3366;fill-opacity:1;stroke:none"
       id="rect4227"
       width="12000"
       height="12000"
       x="-6500"
       y="-6500" />
  </g>
  <g
     inkscape:groupmode="layer"
     id="layer2"
     inkscape:label="Logotipo"
     style="display:inline"
     transform="translate(1500,1500)">
    <circle
       r="5000"
       id="circle4206"
       cx="-1000"
       cy="0" />
    <circle
       style="fill:#cc3366;fill-opacity:1"
       r="4500"
       id="circle4208"
       cx="-1000"
       cy="0" />
    <path
       d="m -2944,1560 0,-4207 c -187,-12 -343,0 -441,29 -28,-61 144,-155 441,-245 l 0,-810 438,0 0,700 c 1578,-327 4724,-344 4741,2384 11,1926 -3401,1632 -4390,2257 -1076,678 -593,2113 -593,2113 0,0 -651,-1344 -196,-2221 z m 438,-469 c 462,-314 1255,-693 1408,-1418 308,-1458 -619,-2063 -1408,-2253 z"
       id="path4210"
       inkscape:connector-curvature="0" />
  </g>
  <g
     inkscape:groupmode="layer"
     id="layer4"
     inkscape:label="Contorno"
     style="display:none"
     transform="translate(500,500)">
    <path
       d="M -5500,1000 A 5500,5500 0 0 1 0,-4500 5500,5500 0 0 1 5500,1000 5500,5500 0 0 1 0,6500 5500,5500 0 0 1 -5500,1000 Z"
       id="circle4271"
       inkscape:connector-curvature="0" />
  </g>
  <g
     inkscape:groupmode="layer"
     id="layer3"
     inkscape:label="Texto"
     transform="translate(500,500)"
     style="display:inline">
    <text
       xml:space="preserve"
       style="font-style:normal;font-variant:normal;font-weight:bold;font-stretch:normal;font-size:937.5px;line-height:125%;font-family:'Liberation Sans';-inkscape-font-specification:'Liberation Sans Bold';letter-spacing:0px;word-spacing:0px;fill:#000000;fill-opacity:1;stroke:none;stroke-width:1px;stroke-linecap:butt;stroke-linejoin:miter;stroke-opacity:1"
       id="text4251"
       sodipodi:linespacing="125%"
       transform="matrix(0,1,-1,0,948.15196,1139.7251)"><textPath
         xlink:href="#circle4271"
         id="textPath4296"><tspan
   style="font-style:normal;font-variant:normal;font-weight:bold;font-stretch:normal;font-size:937.5px;font-family:'Liberation Sans';-inkscape-font-specification:'Liberation Sans Bold'"
   id="tspan4253">partidopirata.org</tspan></textPath></text>
  </g>
</svg>
